Cozmina Secula - Unlocking Insights: Analyzing Categorical Data with Frequency Tables and Chi-Squared Test
…
library(tidyverse)
library(here)
library(ggplot2)

Read the data

Load the data set and take a look at it.

Code

data <- here("projects","2023-09-14-frequency-tables-and-chi-squared-test", "diversity1.csv")
diversity <- readr::read_csv(data)
diversity

# A tibble: 1,493 × 11
   BossGender Gender JobGrade   Age Tenure Status PerformanceScore
        <dbl>  <dbl>    <dbl> <dbl>  <dbl>  <dbl>            <dbl>
 1          1      1        6    39      0      1                4
 2          1      1        5    37      6      1                4
 3          1      1        5    35      1      1                4
 4          1      1        3    30      3      1                4
 5          1      1        6    33      0      1               NA
 6          1      1        7    40      0      1                4
 7          1      1        6    49      8      1                4
 8          1      1        5    37      1      1                5
 9          1      1        6    33     11      1                4
10          1      1        6    38      2      1                4
# ℹ 1,483 more rows
# ℹ 4 more variables: BossPerformance <dbl>, Division <dbl>, Country <dbl>,
#   leaver <dbl>

We have information about 1483 employees, each with 11 variables recorded. Our primary goal is to determine whether there is an underrepresentation of women in senior leadership positions within the organization. The specific variables we are focusing on are Gender and JobGrade. To accomplish our objective, we will begin by selecting the data related these key variables.

Code

diversity1 <- diversity %>% 
  select(Gender, JobGrade)
diversity1

# A tibble: 1,493 × 2
   Gender JobGrade
    <dbl>    <dbl>
 1      1        6
 2      1        5
 3      1        5
 4      1        3
 5      1        6
 6      1        7
 7      1        6
 8      1        5
 9      1        6
10      1        6
# ℹ 1,483 more rows
…
