Making sense of data - Key Driver Analysis to understand customer loyalty in a financial organization (case study)
…
CustSatMean, Custloyalty, INvestMore have inconsistent entries (e.g. IN..More).

Clean names and rename these variables

Code

# use janitor::clean_name()

(cssurvey_clean <- cssurvey_raw|>
   rename(invest_more = INvestMore,
          cust_loyalty = Custloyalty)|>
    clean_names())

# A tibble: 2,507 × 8
    sat1  sat2  sat3  sat4 cust_sat_mean cust_loyalty invest_more
   <dbl> <dbl> <dbl> <dbl>         <dbl>        <dbl>       <dbl>
 1     1     1     1     3          1.5             4           3
 2     2     3     3     3          2.75            2           1
 3     3     5     4     5          4.25            2           3
 4     3     4     4     3          3.5             3           3
 5    NA    NA    NA    NA         NA               5           3
 6     3     3     3     3          3               3           3
 7     4     4     4     5          4.25            4           2
 8     1     2     1     1          1.25            1           1
 9     4     5    NA     5          4.67            3           3
10     3     4     3     3          3.25            3          NA
# ℹ 2,497 more rows
# ℹ 1 more variable: sex_of_salesperson <dbl>
…
                         labels = c("Very Dissatisfied", "Dissatisfied", "Neutral", "Satisfied", "Very Satisfied")),
         sales_confidence = factor(sat2,
                         levels = c(1:5),
                         labels = c("Very Dissatisfied", "Dissatisfied", "Neutral", "Satisfied", "Very Satisfied")),
         give_recomm = factor(sat3,
                         levels = c(1:5),
                         labels = c("Very Dissatisfied", "Dissatisfied", "Neutral", "Satisfied", "Very Satisfied")),
         product_know = factor(sat4,
                         levels = c(1:5),
                         labels = c("Very Dissatisfied", "Dissatisfied", "Neutral", "Satisfied", "Very Satisfied")),
         gender = factor(sex_of_salesperson,
                           levels = c(1:2),
                           labels = c("female", "male"))))

# A tibble: 2,507 × 13
    sat1  sat2  sat3  sat4 cust_sat_mean cust_loyalty invest_more
   <dbl> <dbl> <dbl> <dbl>         <dbl>        <dbl>       <dbl>
 1     1     1     1     3          1.5             4           3
 2     2     3     3     3          2.75            2           1
 3     3     5     4     5          4.25            2           3
 4     3     4     4     3          3.5             3           3
 5    NA    NA    NA    NA         NA               5           3
 6     3     3     3     3          3               3           3
 7     4     4     4     5          4.25            4           2
 8     1     2     1     1          1.25            1           1
 9     4     5    NA     5          4.67            3           3
10     3     4     3     3          3.25            3          NA
# ℹ 2,497 more rows
# ℹ 6 more variables: sex_of_salesperson <dbl>, undst_cust_need <fct>,
#   sales_confidence <fct>, give_recomm <fct>, product_know <fct>, gender <fct>
…
